<svg width="12" height="12" viewBox="0 0 12 12" xmlns="http://www.w3.org/2000/svg">
<path d="M6 1V11" stroke-width="1.5" stroke-linecap="round" stroke-linejoin="round"/>
<path d="M1 6H11" stroke-width="1.5" stroke-linecap="round" stroke-linejoin="round"/>
</svg>
